...........
----------------------------------------------------------------------
Ran 11 tests in 0.001s

OK
Name               Stmts   Miss Branch BrPart  Cover   Missing
--------------------------------------------------------------
Diplomacy.py          56      4     38      4    87%   49, 78-80, 42->41, 45->49, 50->exit, 76->78
TestDiplomacy.py      68      0      0      0   100%
--------------------------------------------------------------
TOTAL                124      4     38      4    93%