..............
----------------------------------------------------------------------
Ran 14 tests in 0.004s

OK
Name               Stmts   Miss Branch BrPart  Cover   Missing
--------------------------------------------------------------
Diplomacy.py          56      1     42      2    97%   69, 16->12, 68->69
TestDiplomacy.py      76      0      2      1    99%   81->exit
--------------------------------------------------------------
TOTAL                132      1     44      3    98%
