......................
----------------------------------------------------------------------
Ran 22 tests in 0.002s

OK
Name               Stmts   Miss Branch BrPart  Cover   Missing
--------------------------------------------------------------
Diplomacy.py          94      5     58      6    93%   36, 44, 53-54, 77, 35->36, 43->44, 50->53, 55->24, 63->67, 74->77
TestDiplomacy.py     129      0      2      1    99%   203->exit
--------------------------------------------------------------
TOTAL                223      5     60      7    96%
