...
----------------------------------------------------------------------
Ran 3 tests in 0.000s

OK
Name               Stmts   Miss Branch BrPart  Cover   Missing
--------------------------------------------------------------
Diplomacy.py          85      0     48      0   100%
TestDiplomacy.py      21      0      2      1    96%   31->exit
--------------------------------------------------------------
TOTAL                106      0     50      1    99%